{
    "result": [
        {
            "run": 379415,
            "primary_dataset": "BTagMu",
            "cmssw": "CMSSW_14_0_4",
            "scram_arch": "el8_amd64_gcc12",
            "alca_skim": "TkAlMinBias,TkAlV0s",
            "physics_skim": "LogError,LogErrorMonitor",
            "dqm_seq": "@common,@btag,@miniAODDQM",
            "global_tag": "140X_dataRun3_Prompt_v2",
            "scenario": "ppEra_Run3",
            "proc_version": 1,
            "multicore": 8,
            "write_reco": true,
            "write_dqm": true,
            "write_aod": true,
            "write_miniaod": true,
            "write_nanoaod": true
        }
    ]
}
